<?xml version="1.0" encoding="UTF-8" standalone="no"?>
<!-- Created with Inkscape (http://www.inkscape.org/) -->

<svg
   xmlns:dc="http://purl.org/dc/elements/1.1/"
   xmlns:cc="http://creativecommons.org/ns#"
   xmlns:rdf="http://www.w3.org/1999/02/22-rdf-syntax-ns#"
   xmlns:svg="http://www.w3.org/2000/svg"
   xmlns="http://www.w3.org/2000/svg"
   xmlns:sodipodi="http://sodipodi.sourceforge.net/DTD/sodipodi-0.dtd"
   xmlns:inkscape="http://www.inkscape.org/namespaces/inkscape"
   width="24"
   height="24"
   id="svg2"
   version="1.1"
   inkscape:version="0.91 r13725"
   sodipodi:docname="PG_Conduit_HUD.svg"
   inkscape:export-filename="C:\Users\archinate\Documents\BitBucket\dev-pglibs\ProvingGround.Conduit\Graphics\PNG\PG_Conduit_HUD.png"
   inkscape:export-xdpi="90"
   inkscape:export-ydpi="90">
  <defs
     id="defs4">
    <marker
       inkscape:stockid="Arrow2Mend"
       orient="auto"
       refY="0.0"
       refX="0.0"
       id="Arrow2Mend"
       style="overflow:visible;">
      <path
         id="path3938"
         style="fill-rule:evenodd;stroke-width:0.62500000;stroke-linejoin:round;"
         d="M 8.7185878,4.0337352 L -2.2072895,0.016013256 L 8.7185884,-4.0017078 C 6.9730900,-1.6296469 6.9831476,1.6157441 8.7185878,4.0337352 z "
         transform="scale(0.6) rotate(180) translate(0,0)" />
    </marker>
    <marker
       inkscape:stockid="Arrow2Send"
       orient="auto"
       refY="0.0"
       refX="0.0"
       id="Arrow2Send"
       style="overflow:visible;">
      <path
         id="path3944"
         style="fill-rule:evenodd;stroke-width:0.62500000;stroke-linejoin:round;"
         d="M 8.7185878,4.0337352 L -2.2072895,0.016013256 L 8.7185884,-4.0017078 C 6.9730900,-1.6296469 6.9831476,1.6157441 8.7185878,4.0337352 z "
         transform="scale(0.3) rotate(180) translate(-2.3,0)" />
    </marker>
    <marker
       inkscape:stockid="Arrow1Send"
       orient="auto"
       refY="0.0"
       refX="0.0"
       id="Arrow1Send"
       style="overflow:visible;">
      <path
         id="path3926"
         d="M 0.0,0.0 L 5.0,-5.0 L -12.5,0.0 L 5.0,5.0 L 0.0,0.0 z "
         style="fill-rule:evenodd;stroke:#000000;stroke-width:1.0pt;"
         transform="scale(0.2) rotate(180) translate(6,0)" />
    </marker>
    <marker
       inkscape:stockid="Arrow2Lend"
       orient="auto"
       refY="0.0"
       refX="0.0"
       id="Arrow2Lend"
       style="overflow:visible;">
      <path
         id="path3932"
         style="fill-rule:evenodd;stroke-width:0.62500000;stroke-linejoin:round;"
         d="M 8.7185878,4.0337352 L -2.2072895,0.016013256 L 8.7185884,-4.0017078 C 6.9730900,-1.6296469 6.9831476,1.6157441 8.7185878,4.0337352 z "
         transform="scale(1.1) rotate(180) translate(1,0)" />
    </marker>
    <inkscape:perspective
       sodipodi:type="inkscape:persp3d"
       inkscape:vp_x="-24.239388 : 28.156793 : 1"
       inkscape:vp_y="0 : 1156.5081 : 0"
       inkscape:vp_z="43.004666 : 26.596714 : 1"
       inkscape:persp3d-origin="14.87977 : -0.093302615 : 1"
       id="perspective2987" />
    <filter
       id="filter3883"
       style="color-interpolation-filters:sRGB;"
       inkscape:label="Drop Shadow">
      <feFlood
         id="feFlood3885"
         flood-opacity="0.2"
         flood-color="rgb(0,0,0)"
         result="flood" />
      <feComposite
         id="feComposite3887"
         in2="SourceGraphic"
         in="flood"
         operator="in"
         result="composite1" />
      <feGaussianBlur
         id="feGaussianBlur3889"
         in="composite"
         stdDeviation="0.2"
         result="blur" />
      <feOffset
         id="feOffset3891"
         dx="2"
         dy="2"
         result="offset" />
      <feComposite
         id="feComposite3893"
         in2="offset"
         in="SourceGraphic"
         operator="over"
         result="composite2" />
    </filter>
    <filter
       id="filter8565"
       style="color-interpolation-filters:sRGB;"
       inkscape:label="Drop Shadow">
      <feFlood
         id="feFlood8567"
         flood-opacity="0.2"
         flood-color="rgb(0,0,0)"
         result="flood" />
      <feComposite
         id="feComposite8569"
         in2="SourceGraphic"
         in="flood"
         operator="in"
         result="composite1" />
      <feGaussianBlur
         id="feGaussianBlur8571"
         in="composite"
         stdDeviation="0.2"
         result="blur" />
      <feOffset
         id="feOffset8573"
         dx="2"
         dy="2"
         result="offset" />
      <feComposite
         id="feComposite8575"
         in2="offset"
         in="SourceGraphic"
         operator="over"
         result="composite2" />
    </filter>
  </defs>
  <sodipodi:namedview
     id="base"
     pagecolor="#ffffff"
     bordercolor="#666666"
     borderopacity="1.0"
     inkscape:pageopacity="0.0"
     inkscape:pageshadow="2"
     inkscape:zoom="22.627417"
     inkscape:cx="13.851498"
     inkscape:cy="9.3299401"
     inkscape:document-units="px"
     inkscape:current-layer="layer1"
     showgrid="false"
     inkscape:window-width="1920"
     inkscape:window-height="1137"
     inkscape:window-x="-8"
     inkscape:window-y="-8"
     inkscape:window-maximized="1" />
  <metadata
     id="metadata7">
    <rdf:RDF>
      <cc:Work
         rdf:about="">
        <dc:format>image/svg+xml</dc:format>
        <dc:type
           rdf:resource="http://purl.org/dc/dcmitype/StillImage" />
        <dc:title />
      </cc:Work>
    </rdf:RDF>
  </metadata>
  <g
     inkscape:label="Layer 1"
     inkscape:groupmode="layer"
     id="layer1"
     transform="translate(0,-1028.3622)">
    <circle
       style="opacity:1;fill:#ffffff;fill-opacity:1;stroke:none;stroke-width:0.69999999;stroke-linecap:round;stroke-linejoin:round;stroke-miterlimit:4;stroke-dasharray:none;stroke-dashoffset:0;stroke-opacity:1"
       id="path4247"
       cx="11.998718"
       cy="1040.4519"
       r="11.468389" />
    <path
       style="fill:#ff0073;fill-opacity:1;stroke:#000000;stroke-width:0.75482577;stroke-miterlimit:4;stroke-dasharray:none;stroke-opacity:1"
       d="m 8.752023,1051.2665 c -4.9649407,-1.4696 -8.42673376,-6.4463 -8.03140486,-11.5459 0.33457346,-4.316 2.98087086,-8.0561 6.88345596,-9.7289 1.071472,-0.4594 3.2819199,-0.9051 4.4687069,-0.9013 4.976915,0.016 9.66251,3.7044 10.902107,8.5809 0.358036,1.4086 0.351649,4.176 -0.0129,5.588 -1.012237,3.9206 -4.370372,7.2479 -8.234428,8.1587 -1.734459,0.4089 -4.302534,0.3437 -5.9755365,-0.1515 z m 6.016104,-2.2905 c 6.410523,-2.1596 8.304779,-10.1385 3.534814,-14.8892 -3.552127,-3.5378 -9.0545192,-3.5165 -12.6112803,0.048 -1.275671,1.2787 -1.9719281,2.5026 -2.4229849,4.2591 -1.1289329,4.3965 1.5888749,9.1846 6.0169262,10.6005 1.476492,0.472 4.050858,0.463 5.482525,-0.018 z m -3.188781,-6.301 c -0.864929,-0.2677 -1.280281,-0.836 -4.5487956,-6.2236 -1.0477507,-1.7272 -1.0607213,-1.7572 -0.7591757,-1.7572 0.3115748,0 6.9542753,4.1466 7.3960833,4.6169 0.472466,0.5029 0.635748,1.6483 0.31913,2.2386 -0.445804,0.8311 -1.605759,1.3734 -2.407242,1.1253 z"
       id="path4196"
       inkscape:connector-curvature="0" />
  </g>
</svg>
